{
  "kind": "collectionType",
  "collectionName": "products",
  "info": {
    "name": "product",
    "description": ""
  },
  "options": {
    "increments": true,
    "timestamps": true,
    "draftAndPublish": true
  },
  "attributes": {
    "productImage": {
      "model": "file",
      "via": "related",
      "allowedTypes": [
        "images",
        "files",
        "videos"
      ],
      "plugin": "upload",
      "required": false
    },
    "productTitle": {
      "type": "string"
    },
    "productDescription": {
      "type": "text"
    },
    "productPrice": {
      "type": "decimal"
    },
    "categories": {
      "collection": "category",
      "via": "products"
    }
  }
}
