{
  "collectionName": "components_global_ctas",
  "info": {
    "name": "CTA",
    "icon": "comment-alt",
    "description": ""
  },
  "options": {},
  "attributes": {
    "ctaText": {
      "type": "string"
    },
    "ctaLink": {
      "type": "string"
    }
  }
}
